{
  "count": 30,
  "next": "http://quasartest.accidentlaw.ru/api/v1/omnichannel/tickets?page=2",
  "previous": null,
  "results": [
    {
      "ticket_id": "1e3551f1-a939-4c32-a9da-fb86168198f5",
      "created_by": "Webhook",
      "created_at": "2020-05-04T10:34:49+02:00",
      "updated_at": "2020-05-04T11:27:56+02:00",
      "channel": "Тестовый бот в Viber",
      "status_type": "Новое",
      "customer": "Георгий Рымаренко",
      "assigned_to": "Георгий Травин",
      "remark": "Переписка идет с преставителем ЗЛ",
      "latest_signal": "Добрый день, мне нужна помощь.",
      "case": "50392224-1 Джордж Вашингтон",
      "case_status": "1.1 Организация помощи",
      "insured_dob": "1732-02-22"
    },
    {
      "ticket_id": "5ef54883-f15c-4091-a092-f6b545eafe18",
      "created_by": "Webhook",
      "created_at": "2020-05-04T21:05:03+02:00",
      "updated_at": null,
      "channel": "Тестовый бот в Viber",
      "status_type": "Назначен ответственный",
      "customer": "Георгий Рымаренко",
      "assigned_to": "Георгий Травин",
      "remark": "В этом обращении много сообщений!",
      "latest_signal": "Hello, I need a doctor to hotel!",
      "case": "50392225-1 Авраам Линкольн",
      "case_status": "1.0 Заявлено",
      "insured_dob": "1809-02-17"
    },
    {
      "ticket_id": "fa05ca1c-b252-423d-93f5-3a35aa676d72",
      "created_by": "Webhook",
      "created_at": "2020-05-04T21:05:04+02:00",
      "updated_at": null,
      "channel": "Тестовый бот в Viber",
      "status_type": "Назначен ответственный",
      "customer": "Георгий Рымаренко",
      "assigned_to": "Георгий Рымаренко",
      "remark": "Тестовое обращение fa05ca1c",
      "latest_signal": null,
      "case": null,
      "case_status": null,
      "insured_dob": null
    },
    {
      "ticket_id": "e55abaee-8fd1-4dab-a3f9-368fd5af5819",
      "created_by": "Webhook",
      "created_at": "2020-05-04T21:05:05+02:00",
      "updated_at": null,
      "channel": "Тестовый бот в Viber",
      "status_type": "Новое",
      "customer": "Георгий Рымаренко",
      "assigned_to": "Георгий Рымаренко",
      "remark": "Тестовое обращение e55abaee",
      "latest_signal": null,
      "case": null,
      "case_status": null,
      "insured_dob": null
    },
    {
      "ticket_id": "b45d2cb0-c3d3-4eea-8154-6597d991cb58",
      "created_by": "Webhook",
      "created_at": "2020-05-04T21:05:06+02:00",
      "updated_at": null,
      "channel": "Тестовый бот в Viber",
      "status_type": "Новое",
      "customer": "Георгий Рымаренко",
      "assigned_to": "Георгий Травин",
      "remark": "Тестовое обращение b45d2cb0",
      "latest_signal": null,
      "case": null,
      "case_status": null,
      "insured_dob": null
    },
    {
      "ticket_id": "fc808516-94e0-4fd8-a6e2-6864ce336153",
      "created_by": "Webhook",
      "created_at": "2020-05-04T21:05:07+02:00",
      "updated_at": null,
      "channel": "Тестовый бот в Viber",
      "status_type": "Новое",
      "customer": "Георгий Рымаренко",
      "assigned_to": "Георгий Травин",
      "remark": "Тестовое обращение 4fe9ad77",
      "latest_signal": null,
      "case": null,
      "case_status": null,
      "insured_dob": null
    },
    {
      "ticket_id": "e4fd7d2e-f4ef-4993-803b-81a260fac1de",
      "created_by": "Webhook",
      "created_at": "2020-05-04T21:05:08+02:00",
      "updated_at": null,
      "channel": "Тестовый бот в Viber",
      "status_type": "Новое",
      "customer": "Георгий Рымаренко",
      "assigned_to": "Георгий Травин",
      "remark": "Тестовое обращение e4fd7d2e",
      "latest_signal": null,
      "case": null,
      "case_status": null,
      "insured_dob": null
    },
    {
      "ticket_id": "7cde18f4-bd63-4c01-8dac-60b706d0a0f0",
      "created_by": "Webhook",
      "created_at": "2020-05-04T21:05:09+02:00",
      "updated_at": null,
      "channel": "Тестовый бот в Viber",
      "status_type": "Новое",
      "customer": "Георгий Рымаренко",
      "assigned_to": "Георгий Травин",
      "remark": "Тестовое обращение 7cde18f4",
      "latest_signal": null,
      "case": null,
      "case_status": null,
      "insured_dob": null
    },
    {
      "ticket_id": "692f345b-bdce-470e-9942-d07b693466ca",
      "created_by": "Webhook",
      "created_at": "2020-05-04T21:05:10+02:00",
      "updated_at": null,
      "channel": "Тестовый бот в Viber",
      "status_type": "Новое",
      "customer": "Георгий Рымаренко",
      "assigned_to": "Георгий Травин",
      "remark": "Тестовое обращение 692f345b",
      "latest_signal": null,
      "case": null,
      "case_status": null,
      "insured_dob": null
    },
    {
      "ticket_id": "d3a15b79-5408-47fc-8b2d-2ffee4e3f3b4",
      "created_by": "Webhook",
      "created_at": "2020-05-04T21:05:11+02:00",
      "updated_at": null,
      "channel": "Тестовый бот в Viber",
      "status_type": "Новое",
      "customer": "Георгий Рымаренко",
      "assigned_to": "Георгий Травин",
      "remark": "Тестовое обращение 53e6f112",
      "latest_signal": null,
      "case": null,
      "case_status": null,
      "insured_dob": null
    }
  ]
}